<svg xmlns="http://www.w3.org/2000/svg" width="19.826" height="18.017" viewBox="0 0 19.826 18.017">
  <g id="icons_Q2" data-name="icons Q2" transform="translate(-2 -4)">
    <path id="Trazado_4061" data-name="Trazado 4061" d="M16.419,5.847a3.424,3.424,0,0,1,2.523,1.081,3.469,3.469,0,0,1,1.081,2.523c0,.946-.586,2.028-1.757,3.334l-6.353,6.759L5.56,12.786C4.388,11.48,3.8,10.4,3.8,9.452A3.47,3.47,0,0,1,4.884,6.929,3.424,3.424,0,0,1,7.407,5.847a3.933,3.933,0,0,1,2.929,2.028l1.172,1.983a.5.5,0,0,0,.811,0L13.49,7.875a3.933,3.933,0,0,1,2.929-2.028m0-1.847a5.825,5.825,0,0,0-4.506,2.929A5.825,5.825,0,0,0,7.407,4a5.407,5.407,0,0,0-3.83,1.622A5.362,5.362,0,0,0,2,9.452c0,1.847,1.217,3.424,2.253,4.6l7.345,7.84a.451.451,0,0,0,.631,0l7.345-7.84c1.036-1.172,2.253-2.749,2.253-4.6A5.452,5.452,0,0,0,16.418,4Z"/>
  </g>
</svg>
