<svg id="Layer_2" data-name="Layer 2" xmlns="http://www.w3.org/2000/svg" width="21" height="21" viewBox="0 0 21 21">
  <g id="invisible_box" data-name="invisible box">
    <rect id="Rectángulo_1740" data-name="Rectángulo 1740" width="21" height="21" fill="none"/>
  </g>
  <g id="icons_Q2" data-name="icons Q2" transform="translate(0.89 0.89)">
    <path id="Trazado_4064" data-name="Trazado 4064" d="M11.793,2A9.748,9.748,0,1,0,18.73,4.855,9.793,9.793,0,0,0,11.793,2Zm0,17.805a8.012,8.012,0,1,1,8.012-8.012A8.012,8.012,0,0,1,11.793,19.8Z" transform="translate(-2 -2)" fill="#e62b4a"/>
    <path id="Trazado_4065" data-name="Trazado 4065" d="M22.89,20a.89.89,0,0,0-.89.89v5.342a.89.89,0,0,0,1.781,0V20.89A.89.89,0,0,0,22.89,20Z" transform="translate(-13.097 -11.988)" fill="#e62b4a"/>
    <circle id="Elipse_214" data-name="Elipse 214" cx="1" cy="1" r="1" transform="translate(9.11 4.109)" fill="#e62b4a"/>
  </g>
</svg>
