<svg xmlns="http://www.w3.org/2000/svg" width="141.653" height="25.635" viewBox="0 0 141.653 25.635">
  <g id="Grupo_1368" data-name="Grupo 1368" transform="translate(-172 -79.303)">
    <g id="Logotipo" transform="translate(172 79.303)">
      <g id="Grupo_1347" data-name="Grupo 1347">
        <g id="Grupo_1346" data-name="Grupo 1346">
          <path id="Trazado_4021" data-name="Trazado 4021" d="M937.554,437.887a7.237,7.237,0,0,1-3.51,3.986,7.65,7.65,0,0,1-10.677-3.855,7.029,7.029,0,0,1,3.774-8.86,7.651,7.651,0,0,1,10.141,3.481,6.532,6.532,0,0,1,.53,4.252H926.955a3.016,3.016,0,0,0,.944,1.457,3.757,3.757,0,0,0,5.251-.153,1.106,1.106,0,0,1,.691-.294C935.049,437.871,936.257,437.887,937.554,437.887Zm-10.576-3.623h6.915a3.676,3.676,0,0,0-6.915,0Z" transform="translate(-848.655 -424.342)" fill="#fff"/>
          <path id="Trazado_4022" data-name="Trazado 4022" d="M679.8,428.088a7.542,7.542,0,0,1,7.132,5.176,7.061,7.061,0,0,1-4.039,8.55,7.628,7.628,0,0,1-9.75-3.223,7.087,7.087,0,0,1,4.649-10.186C678.448,428.242,679.131,428.191,679.8,428.088Zm3.675,7.2a3.7,3.7,0,1,0-3.676,3.779A3.712,3.712,0,0,0,683.476,435.284Z" transform="translate(-635.638 -424.056)" fill="#fff"/>
          <path id="Trazado_4023" data-name="Trazado 4023" d="M485.957,442.278h-3.713c0-.431,0-.836,0-1.24-.021-2.076.048-4.157-.09-6.225a3.142,3.142,0,0,0-4.031-2.922,3.357,3.357,0,0,0-2.382,3.371c-.029,2.144-.011,4.289-.013,6.434,0,.184,0,.368,0,.58h-3.732c-.012-.125-.034-.255-.034-.384,0-2.128-.031-4.256.007-6.383a6.822,6.822,0,0,1,3.325-6.125,6.961,6.961,0,0,1,10.652,5.679c.128,2.308.035,4.628.041,6.943A2.644,2.644,0,0,1,485.957,442.278Z" transform="translate(-465.307 -424.292)" fill="#fff"/>
          <path id="Trazado_4024" data-name="Trazado 4024" d="M567.348,431.04c1.286,0,2.526-.014,3.764.018.147,0,.347.234.422.4,1.1,2.484,2.19,4.976,3.281,7.465.075.171.155.339.271.592.1-.22.184-.377.255-.538,1.092-2.489,2.189-4.976,3.267-7.472a.652.652,0,0,1,.71-.481c1.168.029,2.338.01,3.566.01-.093.225-.151.381-.221.531q-2.931,6.282-5.858,12.566a.618.618,0,0,1-.674.445c-.73-.035-1.464.005-2.194-.022a.616.616,0,0,1-.46-.262q-3.061-6.5-6.089-13.02A1.274,1.274,0,0,1,567.348,431.04Z" transform="translate(-546.402 -426.555)" fill="#fff"/>
          <path id="Trazado_4025" data-name="Trazado 4025" d="M825.921,439.365c.1-.208.174-.355.24-.505,1.092-2.489,2.19-4.976,3.267-7.472a.681.681,0,0,1,.746-.507c1.154.034,2.31.012,3.546.012-.09.212-.147.362-.215.507q-2.943,6.3-5.88,12.612a.582.582,0,0,1-.636.423c-.747-.032-1.5,0-2.245-.021a.567.567,0,0,1-.426-.238q-3.069-6.527-6.107-13.068c-.019-.041,0-.1,0-.214a27.426,27.426,0,0,0,2.788-.021,1.434,1.434,0,0,1,1.7,1.106c.923,2.3,1.964,4.555,2.96,6.826C825.727,438.971,825.81,439.133,825.921,439.365Z" transform="translate(-759.639 -426.41)" fill="#fff"/>
          <path id="Trazado_4026" data-name="Trazado 4026" d="M787.4,419.2h-3.693v-18H787.4Z" transform="translate(-730.319 -401.2)" fill="#fff"/>
          <path id="Trazado_4027" data-name="Trazado 4027" d="M433.287,444.78h-3.68V431.3h3.68Z" transform="translate(-429.315 -426.782)" fill="#fff"/>
          <path id="Trazado_4028" data-name="Trazado 4028" d="M429.8,539.321a2.109,2.109,0,0,1-2.145-2.119,2.153,2.153,0,0,1,2.158-2.176,2.191,2.191,0,0,1,2.136,2.163A2.149,2.149,0,0,1,429.8,539.321Z" transform="translate(-427.658 -514.959)" fill="#fff"/>
        </g>
      </g>
      <g id="Grupo_1349" data-name="Grupo 1349" transform="translate(94.713 5.849)" opacity="0.4">
        <circle id="Elipse_190" data-name="Elipse 190" cx="3.014" cy="3.014" r="3.014" transform="translate(11.558 0.094)" fill="#0dd1d1"/>
        <g id="Grupo_1348" data-name="Grupo 1348" transform="translate(0 0)">
          <path id="Trazado_4029" data-name="Trazado 4029" d="M1158.232,504.788h0Z" transform="translate(-1143.398 -495.104)" fill="#0dd1d1"/>
          <path id="Trazado_4030" data-name="Trazado 4030" d="M1103.641,450.45a33.63,33.63,0,0,1-6.5-7.327,5.386,5.386,0,0,0-3.32-2.579,9.613,9.613,0,0,0-4.814-.058,4.564,4.564,0,0,0-2.729,1.732c-.478.666-.369.375-1.491,1.942a12.4,12.4,0,0,1-4.044,4.28c-2.5,1.676-4.1,1.525-6.59,1.451,0,0-.151,0-.3,0-3.836-.083-6.978-1.43-9-4.88a8.771,8.771,0,0,0-2.2-2.447,1.913,1.913,0,0,0-2.141-.355,2.041,2.041,0,0,0-1.2,2,6.9,6.9,0,0,0,2.6,5.089,33.632,33.632,0,0,1,6.5,7.327,5.386,5.386,0,0,0,3.32,2.579,9.611,9.611,0,0,0,4.814.058,4.563,4.563,0,0,0,2.729-1.732c.477-.666.929-1.209,1.491-1.942a17.086,17.086,0,0,1,4.044-4.281c2-1.435,4.1-1.524,6.59-1.451,0,0,.151,0,.3,0,3.836.083,6.978,1.43,9,4.88a8.772,8.772,0,0,0,2.2,2.447,1.913,1.913,0,0,0,2.141.355,2.04,2.04,0,0,0,1.2-2A6.9,6.9,0,0,0,1103.641,450.45Z" transform="translate(-1059.302 -440.207)" fill="#0dd1d1"/>
          <path id="Trazado_4031" data-name="Trazado 4031" d="M1273.315,504.565h0Z" transform="translate(-1241.21 -494.915)" fill="#0dd1d1"/>
        </g>
        <circle id="Elipse_191" data-name="Elipse 191" cx="3.014" cy="3.014" r="3.014" transform="translate(28.874 13.758)" fill="#0dd1d1"/>
      </g>
    </g>
  </g>
</svg>
