<svg id="Grupo_3008" data-name="Grupo 3008" xmlns="http://www.w3.org/2000/svg" width="8.5" height="8.5" viewBox="0 0 8.5 8.5">
  <g id="cerrar">
    <path id="Trazado_3973" data-name="Trazado 3973" d="M.476,8.5a.438.438,0,0,1-.309-.747L7.793.127a.437.437,0,0,1,.618.619L.786,8.371a.438.438,0,0,1-.31.128Zm0,0" transform="translate(-0.039 0.001)" fill="#0aa8a8"/>
    <path id="Trazado_3974" data-name="Trazado 3974" d="M8.1,8.5a.434.434,0,0,1-.309-.128L.167.746A.437.437,0,1,1,.786.128L8.411,7.753A.438.438,0,0,1,8.1,8.5Zm0,0" transform="translate(-0.039 0.001)" fill="#0aa8a8"/>
  </g>
</svg>
