<svg xmlns="http://www.w3.org/2000/svg" width="37" height="37" viewBox="0 0 37 37">
  <g id="Elipse_155" data-name="Elipse 155" fill="#dfdfdf" stroke="#dfdfdf" stroke-width="1">
    <circle cx="18.5" cy="18.5" r="18.5" stroke="none"/>
    <circle cx="18.5" cy="18.5" r="18" fill="none"/>
  </g>
  <path id="Trazado_3973" data-name="Trazado 3973" d="M16.382.349a1.346,1.346,0,0,0-1.9.091L6.272,9.48,2.306,5.448A1.346,1.346,0,1,0,.387,7.335l4.965,5.047a1.344,1.344,0,0,0,.959.4h.026a1.347,1.347,0,0,0,.97-.441L16.473,2.251A1.347,1.347,0,0,0,16.382.349Z" transform="translate(10.089 12.107)" fill="#fff"/>
</svg>
