<svg xmlns="http://www.w3.org/2000/svg" width="89" height="88" viewBox="0 0 89 88">
  <g id="Layer_2" data-name="Layer 2" transform="translate(0.229 -0.192)">
    <g id="invisible_box" data-name="invisible box" transform="translate(0 0)">
      <rect id="Rectángulo_1496" data-name="Rectángulo 1496" width="89" height="88" transform="translate(-0.229 0.192)" fill="none"/>
    </g>
    <g id="icons_Q2" data-name="icons Q2" transform="translate(3.335 5.194)">
      <path id="Trazado_4007" data-name="Trazado 4007" d="M42.892,3,2,29.022V77.35a3.717,3.717,0,0,0,3.717,3.717h74.35a3.717,3.717,0,0,0,3.717-3.717V29.022Zm32.9,29.74L42.892,51.7,9.993,32.74l32.9-21ZM9.435,73.632V41.1L42.892,60.249,76.35,41.1V73.632Z" transform="translate(-2 -3)" fill="#6ee3e3"/>
    </g>
  </g>
</svg>
