<svg id="checkmark" xmlns="http://www.w3.org/2000/svg" width="22.052" height="20.214" viewBox="0 0 22.052 20.214">
  <path id="Trazado_389" data-name="Trazado 389" d="M10.107,20.221A10.107,10.107,0,1,1,15.559,1.606a.69.69,0,0,1-.745,1.161,8.727,8.727,0,1,0,4.022,7.349c0-.288-.014-.573-.04-.853a.689.689,0,0,1,1.372-.133q.047.487.047.986A10.119,10.119,0,0,1,10.107,20.221Zm0,0" transform="translate(0 -0.008)" fill="#0bb9b9"/>
  <path id="Trazado_390" data-name="Trazado 390" d="M154.163,32.832a.684.684,0,0,1-.487-.2L149.542,28.5a.689.689,0,0,1,.975-.975l3.648,3.648,9.619-9.619a.689.689,0,0,1,.975.975L154.651,32.631A.69.69,0,0,1,154.163,32.832Zm0,0" transform="translate(-142.908 -20.429)" fill="#0bb9b9"/>
</svg>
