<svg id="editar" xmlns="http://www.w3.org/2000/svg" width="13.616" height="13.616" viewBox="0 0 13.616 13.616">
  <g id="Grupo_936" data-name="Grupo 936">
    <g id="Grupo_935" data-name="Grupo 935">
      <path id="Trazado_631" data-name="Trazado 631" d="M0,76.264V79.1H2.837l8.371-8.371L8.371,67.893Z" transform="translate(0 -65.485)" fill="#ababab"/>
      <path id="Trazado_632" data-name="Trazado 632" d="M262.888,1.988,261.121.221a.758.758,0,0,0-1.071,0l-1.385,1.385L261.5,4.443l1.385-1.385A.758.758,0,0,0,262.888,1.988Z" transform="translate(-249.493)" fill="#ababab"/>
    </g>
  </g>
</svg>
