<svg xmlns="http://www.w3.org/2000/svg" width="17.295" height="22.705" viewBox="0 0 17.295 22.705">
  <g id="placeholder" transform="translate(-61)">
    <g id="Grupo_2442" data-name="Grupo 2442" transform="translate(61)">
      <g id="Grupo_2441" data-name="Grupo 2441">
        <path id="Trazado_4139" data-name="Trazado 4139" d="M69.648,0A8.657,8.657,0,0,0,61,8.648c0,3.078.936,4.313,5.436,10.244.781,1.03,1.666,2.2,2.679,3.547a.665.665,0,0,0,1.064,0c1.007-1.343,1.888-2.506,2.666-3.532,4.51-5.949,5.449-7.187,5.449-10.26A8.657,8.657,0,0,0,69.648,0Zm2.138,18.1c-.639.842-1.347,1.777-2.138,2.829-.8-1.058-1.509-2-2.151-2.845-4.377-5.77-5.166-6.81-5.166-9.44a7.317,7.317,0,0,1,14.634,0C76.965,11.273,76.174,12.316,71.786,18.1Z" transform="translate(-61 0)" fill="#979797"/>
      </g>
    </g>
    <g id="Grupo_2444" data-name="Grupo 2444" transform="translate(65.53 4.312)">
      <g id="Grupo_2443" data-name="Grupo 2443">
        <path id="Trazado_4140" data-name="Trazado 4140" d="M155.117,90a4.117,4.117,0,1,0,4.117,4.117A4.122,4.122,0,0,0,155.117,90Zm0,7.059a2.941,2.941,0,1,1,2.941-2.941A2.944,2.944,0,0,1,155.117,97.059Z" transform="translate(-151 -90)" fill="#979797"/>
      </g>
    </g>
  </g>
</svg>
