<svg xmlns="http://www.w3.org/2000/svg" width="204" height="204" viewBox="0 0 204 204">
  <g id="Grupo_3119" data-name="Grupo 3119" transform="translate(-791 -353)">
    <g id="Elipse_250" data-name="Elipse 250" transform="translate(791 353)" fill="none" stroke="#0bb9b9" stroke-width="1">
      <circle cx="102" cy="102" r="102" stroke="none"/>
      <circle cx="102" cy="102" r="101.5" fill="none"/>
    </g>
    <g id="empresa" transform="translate(844.79 389.999)">
      <path id="Trazado_4376" data-name="Trazado 4376" d="M82.219,37.659v-9.7H76.672v9.7h-6.91V16.709L24.914,27.26v10.4H18v-9.7H12.457v9.7H0v67.547H94.677V37.659Zm-76.672,62V43.207H24.914V99.659Zm44.565,0H44.565V94.111h5.547Zm14.1,0H55.659V88.564H39.017V99.659H30.462v-68l33.753-7.941V99.659Zm24.914,0H69.762V43.207H89.129Z" fill="#0bb9b9"/>
      <path id="Trazado_4377" data-name="Trazado 4377" d="M194.734,135.29h8.709v5.647h-8.709Z" transform="translate(-158.789 -96.68)" fill="#0bb9b9"/>
      <path id="Trazado_4378" data-name="Trazado 4378" d="M271,135.29h8.709v5.647H271Z" transform="translate(-220.977 -96.68)" fill="#0bb9b9"/>
      <path id="Trazado_4379" data-name="Trazado 4379" d="M194.734,195.291h8.709v5.647h-8.709Z" transform="translate(-158.789 -145.599)" fill="#0bb9b9"/>
      <path id="Trazado_4380" data-name="Trazado 4380" d="M271,195.291h8.709v5.647H271Z" transform="translate(-220.977 -145.599)" fill="#0bb9b9"/>
      <path id="Trazado_4381" data-name="Trazado 4381" d="M194.734,255.291h8.709v5.647h-8.709Z" transform="translate(-158.789 -194.518)" fill="#0bb9b9"/>
      <path id="Trazado_4382" data-name="Trazado 4382" d="M271,255.291h8.709v5.647H271Z" transform="translate(-220.977 -194.518)" fill="#0bb9b9"/>
      <path id="Trazado_4383" data-name="Trazado 4383" d="M194.734,315.291h8.709v5.647h-8.709Z" transform="translate(-158.789 -243.436)" fill="#0bb9b9"/>
      <path id="Trazado_4384" data-name="Trazado 4384" d="M59.234,195.291h8.709v5.647H59.234Z" transform="translate(-48.084 -145.599)" fill="#0bb9b9"/>
      <path id="Trazado_4385" data-name="Trazado 4385" d="M59.234,255.291h8.709v5.647H59.234Z" transform="translate(-48.084 -194.518)" fill="#0bb9b9"/>
      <path id="Trazado_4386" data-name="Trazado 4386" d="M59.234,315.291h8.709v5.647H59.234Z" transform="translate(-48.084 -243.436)" fill="#0bb9b9"/>
      <path id="Trazado_4387" data-name="Trazado 4387" d="M406.5,195.291h8.709v5.647H406.5Z" transform="translate(-331.682 -145.599)" fill="#0bb9b9"/>
      <path id="Trazado_4388" data-name="Trazado 4388" d="M406.5,255.291h8.709v5.647H406.5Z" transform="translate(-331.682 -194.518)" fill="#0bb9b9"/>
      <path id="Trazado_4389" data-name="Trazado 4389" d="M406.5,315.291h8.709v5.647H406.5Z" transform="translate(-331.682 -243.436)" fill="#0bb9b9"/>
      <path id="Trazado_4390" data-name="Trazado 4390" d="M59.234,375.291h8.709v5.647H59.234Z" transform="translate(-48.084 -292.354)" fill="#0bb9b9"/>
      <path id="Trazado_4391" data-name="Trazado 4391" d="M406.5,375.291h8.709v5.647H406.5Z" transform="translate(-331.682 -292.354)" fill="#0bb9b9"/>
      <path id="Trazado_4392" data-name="Trazado 4392" d="M271,315.291h8.709v5.647H271Z" transform="translate(-220.977 -243.436)" fill="#0bb9b9"/>
    </g>
  </g>
</svg>
