<svg id="tooltip-cvc" xmlns="http://www.w3.org/2000/svg" width="25" height="25" viewBox="0 0 25 25">
  <path id="Trazado_318" data-name="Trazado 318" d="M0,0H25V25H0Z" fill="none"/>
  <path id="Trazado_319" data-name="Trazado 319" d="M12.5,2A10.5,10.5,0,1,0,23,12.5,10.5,10.5,0,0,0,12.5,2Zm1.05,15.75h-2.1v-6.3h2.1Zm0-8.4h-2.1V7.25h2.1Z" transform="translate(0 0)" fill="#0bb9b9"/>
</svg>
