<svg xmlns="http://www.w3.org/2000/svg" width="16" height="20" viewBox="0 0 16 20">
  <g id="basura" transform="translate(-48)">
    <path id="Trazado_4322" data-name="Trazado 4322" d="M62.462,2.5H59.077V1.875A1.863,1.863,0,0,0,57.231,0H54.769a1.863,1.863,0,0,0-1.846,1.875V2.5H49.538A1.552,1.552,0,0,0,48,4.063V6.25a.62.62,0,0,0,.615.625h.336l.532,11.339A1.857,1.857,0,0,0,51.327,20h9.345a1.857,1.857,0,0,0,1.844-1.786l.532-11.339h.336A.62.62,0,0,0,64,6.25V4.063A1.552,1.552,0,0,0,62.462,2.5Zm-8.308-.625a.621.621,0,0,1,.615-.625h2.462a.621.621,0,0,1,.615.625V2.5H54.154ZM49.231,4.063a.31.31,0,0,1,.308-.312H62.462a.31.31,0,0,1,.308.313V5.625H49.231ZM61.287,18.155a.619.619,0,0,1-.615.6H51.327a.619.619,0,0,1-.615-.6l-.529-11.28H61.816Z" fill="#fff"/>
    <path id="Trazado_4323" data-name="Trazado 4323" d="M240.615,217.375a.62.62,0,0,0,.615-.625v-8.125a.615.615,0,1,0-1.231,0v8.125A.62.62,0,0,0,240.615,217.375Z" transform="translate(-184.615 -199.875)" fill="#fff"/>
    <path id="Trazado_4324" data-name="Trazado 4324" d="M320.615,217.375a.62.62,0,0,0,.615-.625v-8.125a.615.615,0,1,0-1.231,0v8.125A.62.62,0,0,0,320.615,217.375Z" transform="translate(-261.538 -199.875)" fill="#fff"/>
    <path id="Trazado_4325" data-name="Trazado 4325" d="M160.615,217.375a.62.62,0,0,0,.615-.625v-8.125a.615.615,0,1,0-1.231,0v8.125A.62.62,0,0,0,160.615,217.375Z" transform="translate(-107.692 -199.875)" fill="#fff"/>
  </g>
</svg>
