<svg xmlns="http://www.w3.org/2000/svg" width="81.43" height="81.346" viewBox="0 0 81.43 81.346">
  <g id="celebracion" transform="translate(0 -0.262)">
    <g id="Grupo_3009" data-name="Grupo 3009" transform="translate(37.233 61.66)">
      <g id="Grupo_3008" data-name="Grupo 3008">
        <path id="Trazado_4471" data-name="Trazado 4471" d="M236.764,386.309a2.66,2.66,0,0,0-2.66,2.66V403.58a2.66,2.66,0,0,0,5.319,0V388.969A2.66,2.66,0,0,0,236.764,386.309Z" transform="translate(-234.104 -386.309)" fill="#6ee3e3"/>
      </g>
    </g>
    <g id="Grupo_3011" data-name="Grupo 3011" transform="translate(37.233 1.807)">
      <g id="Grupo_3010" data-name="Grupo 3010">
        <path id="Trazado_4472" data-name="Trazado 4472" d="M236.764,9.975a2.66,2.66,0,0,0-2.66,2.66V23.272a2.66,2.66,0,0,0,5.319,0V12.635A2.66,2.66,0,0,0,236.764,9.975Z" transform="translate(-234.104 -9.975)" fill="#6ee3e3"/>
      </g>
    </g>
    <g id="Grupo_3013" data-name="Grupo 3013" transform="translate(0.097 17.599)">
      <g id="Grupo_3012" data-name="Grupo 3012">
        <path id="Trazado_4473" data-name="Trazado 4473" d="M10.172,112.844,4.6,109.628a2.659,2.659,0,0,0-2.66,4.606l5.57,3.216a2.659,2.659,0,1,0,2.66-4.606Z" transform="translate(-0.612 -109.271)" fill="#6ee3e3"/>
      </g>
    </g>
    <g id="Grupo_3015" data-name="Grupo 3015" transform="translate(64.87 54.996)">
      <g id="Grupo_3014" data-name="Grupo 3014">
        <path id="Trazado_4474" data-name="Trazado 4474" d="M423.107,351.251l-11.24-6.489a2.659,2.659,0,0,0-2.659,4.606l11.24,6.489a2.659,2.659,0,0,0,2.66-4.606Z" transform="translate(-407.877 -344.404)" fill="#6ee3e3"/>
      </g>
    </g>
    <g id="Grupo_3017" data-name="Grupo 3017" transform="translate(18.616 64.766)">
      <g id="Grupo_3016" data-name="Grupo 3016">
        <path id="Trazado_4475" data-name="Trazado 4475" d="M124.8,406.194a2.659,2.659,0,0,0-3.633.973l-3.763,6.517a2.659,2.659,0,1,0,4.606,2.659l3.763-6.517A2.66,2.66,0,0,0,124.8,406.194Z" transform="translate(-117.049 -405.837)" fill="#6ee3e3"/>
      </g>
    </g>
    <g id="Grupo_3019" data-name="Grupo 3019" transform="translate(53.189 2.567)">
      <g id="Grupo_3018" data-name="Grupo 3018">
        <path id="Trazado_4476" data-name="Trazado 4476" d="M343.521,15.11a2.659,2.659,0,0,0-3.633.973l-5.1,8.834a2.659,2.659,0,0,0,4.606,2.66l5.1-8.834A2.659,2.659,0,0,0,343.521,15.11Z" transform="translate(-334.431 -14.753)" fill="#6ee3e3"/>
      </g>
    </g>
    <g id="Grupo_3021" data-name="Grupo 3021" transform="translate(63.827 39.04)">
      <g id="Grupo_3020" data-name="Grupo 3020">
        <path id="Trazado_4477" data-name="Trazado 4477" d="M414.618,244.079H403.981a2.66,2.66,0,1,0,0,5.319h10.638a2.66,2.66,0,0,0,0-5.319Z" transform="translate(-401.321 -244.079)" fill="#6ee3e3"/>
      </g>
    </g>
    <g id="Grupo_3023" data-name="Grupo 3023" transform="translate(0 39.04)">
      <g id="Grupo_3022" data-name="Grupo 3022">
        <path id="Trazado_4478" data-name="Trazado 4478" d="M13.3,244.079H2.66a2.66,2.66,0,0,0,0,5.319H13.3a2.66,2.66,0,0,0,0-5.319Z" transform="translate(0 -244.079)" fill="#6ee3e3"/>
      </g>
    </g>
    <g id="Grupo_3025" data-name="Grupo 3025" transform="translate(52.164 64.897)">
      <g id="Grupo_3024" data-name="Grupo 3024">
        <path id="Trazado_4479" data-name="Trazado 4479" d="M339.532,419.381l-6.585-11.392a2.659,2.659,0,0,0-4.6,2.662l6.585,11.392a2.659,2.659,0,1,0,4.6-2.662Z" transform="translate(-327.985 -406.66)" fill="#6ee3e3"/>
      </g>
    </g>
    <g id="Grupo_3027" data-name="Grupo 3027" transform="translate(18.616 6.806)">
      <g id="Grupo_3026" data-name="Grupo 3026">
        <path id="Trazado_4480" data-name="Trazado 4480" d="M129.99,56.541l-7.978-13.8a2.659,2.659,0,0,0-4.6,2.662l7.978,13.8a2.659,2.659,0,0,0,4.6-2.662Z" transform="translate(-117.049 -41.409)" fill="#6ee3e3"/>
      </g>
    </g>
    <g id="Grupo_3029" data-name="Grupo 3029" transform="translate(59.527 17.998)">
      <g id="Grupo_3028" data-name="Grupo 3028">
        <path id="Trazado_4481" data-name="Trazado 4481" d="M393.378,113.105a2.659,2.659,0,0,0-3.633-.971l-14.134,8.17a2.659,2.659,0,1,0,2.662,4.6l14.134-8.17A2.659,2.659,0,0,0,393.378,113.105Z" transform="translate(-374.282 -111.776)" fill="#6ee3e3"/>
      </g>
    </g>
    <g id="Grupo_3031" data-name="Grupo 3031" transform="translate(4.999 50.523)">
      <g id="Grupo_3030" data-name="Grupo 3030">
        <path id="Trazado_4482" data-name="Trazado 4482" d="M48.736,317.611a2.659,2.659,0,0,0-3.633-.971l-12.34,7.132a2.659,2.659,0,0,0,2.662,4.6l12.339-7.133A2.659,2.659,0,0,0,48.736,317.611Z" transform="translate(-31.434 -316.282)" fill="#6ee3e3"/>
      </g>
    </g>
    <g id="Grupo_3033" data-name="Grupo 3033" transform="translate(68.488 0.262)">
      <g id="Grupo_3032" data-name="Grupo 3032">
        <path id="Trazado_4483" data-name="Trazado 4483" d="M440.807,6.683l1.88-1.881a2.659,2.659,0,0,0-3.761-3.761l-1.881,1.881-1.88-1.881A2.659,2.659,0,0,0,431.4,4.8l1.88,1.881L431.4,8.563a2.659,2.659,0,0,0,3.761,3.761l1.88-1.881,1.881,1.881a2.659,2.659,0,0,0,3.761-3.761Z" transform="translate(-430.626 -0.262)" fill="#6ee3e3"/>
      </g>
    </g>
    <g id="Grupo_3035" data-name="Grupo 3035" transform="translate(0.228 68.522)">
      <g id="Grupo_3034" data-name="Grupo 3034">
        <path id="Trazado_4484" data-name="Trazado 4484" d="M11.616,435.874l1.881-1.88a2.659,2.659,0,0,0-3.761-3.761l-1.881,1.881-1.881-1.881a2.659,2.659,0,0,0-3.761,3.761l1.881,1.881-1.88,1.88a2.659,2.659,0,1,0,3.761,3.761l1.88-1.881,1.881,1.881a2.659,2.659,0,1,0,3.761-3.761Z" transform="translate(-1.434 -429.454)" fill="#6ee3e3"/>
      </g>
    </g>
    <g id="Grupo_3037" data-name="Grupo 3037" transform="translate(8.865 10.672)">
      <g id="Grupo_3036" data-name="Grupo 3036">
        <circle id="Elipse_228" data-name="Elipse 228" cx="2.66" cy="2.66" r="2.66" fill="#6ee3e3"/>
      </g>
    </g>
    <g id="Grupo_3039" data-name="Grupo 3039" transform="translate(1.773 3.58)">
      <g id="Grupo_3038" data-name="Grupo 3038">
        <circle id="Elipse_229" data-name="Elipse 229" cx="2.66" cy="2.66" r="2.66" fill="#6ee3e3"/>
      </g>
    </g>
    <g id="Grupo_3041" data-name="Grupo 3041" transform="translate(72.692 74.499)">
      <g id="Grupo_3040" data-name="Grupo 3040">
        <circle id="Elipse_230" data-name="Elipse 230" cx="2.66" cy="2.66" r="2.66" fill="#6ee3e3"/>
      </g>
    </g>
    <g id="Grupo_3043" data-name="Grupo 3043" transform="translate(65.6 67.408)">
      <g id="Grupo_3042" data-name="Grupo 3042">
        <circle id="Elipse_231" data-name="Elipse 231" cx="2.66" cy="2.66" r="2.66" fill="#6ee3e3"/>
      </g>
    </g>
    <g id="Grupo_3047" data-name="Grupo 3047" transform="translate(14.627 26.54)">
      <g id="Grupo_3046" data-name="Grupo 3046">
        <circle id="Elipse_232" data-name="Elipse 232" cx="2.66" cy="2.66" r="2.66" fill="#6ee3e3"/>
      </g>
    </g>
    <g id="Grupo_3049" data-name="Grupo 3049" transform="translate(47.87 20.424)">
      <g id="Grupo_3048" data-name="Grupo 3048">
        <circle id="Elipse_233" data-name="Elipse 233" cx="2.66" cy="2.66" r="2.66" fill="#6ee3e3"/>
      </g>
    </g>
    <g id="Grupo_3051" data-name="Grupo 3051" transform="translate(57.179 49.678)">
      <g id="Grupo_3050" data-name="Grupo 3050">
        <circle id="Elipse_234" data-name="Elipse 234" cx="2.66" cy="2.66" r="2.66" fill="#6ee3e3"/>
      </g>
    </g>
  </g>
</svg>
