<svg id="icon-date" xmlns="http://www.w3.org/2000/svg" xmlns:xlink="http://www.w3.org/1999/xlink" width="21.078" height="18.25" viewBox="0 0 21.078 18.25">
  <defs>
    <clipPath id="clip-path">
      <path id="Trazado_4119" data-name="Trazado 4119" d="M0-18.25H21.078V0H0Z" fill="#0bb9b9"/>
    </clipPath>
  </defs>
  <g id="Grupo_2807" data-name="Grupo 2807" transform="translate(0 18.25)" clip-path="url(#clip-path)">
    <g id="Grupo_2806" data-name="Grupo 2806" transform="translate(18.246 -1.5)">
      <path id="Trazado_4118" data-name="Trazado 4118" d="M0,0H-15.414a1.334,1.334,0,0,1-1.332-1.333V-9.25H1.332v7.917A1.334,1.334,0,0,1,0,0M-15.414-14h1.457v1.75h1.5V-14h9.5v1.75h1.5V-14H0a1.334,1.334,0,0,1,1.332,1.333v2.417H-16.746v-2.417A1.334,1.334,0,0,1-15.414-14M0-15.5H-1.457v-1.25h-1.5v1.25h-9.5v-1.25h-1.5v1.25h-1.457a2.836,2.836,0,0,0-2.832,2.833V-1.333A2.836,2.836,0,0,0-15.414,1.5H0A2.836,2.836,0,0,0,2.832-1.333V-12.667A2.836,2.836,0,0,0,0-15.5" fill="#0bb9b9"/>
    </g>
  </g>
</svg>
