<svg id="Logo_light_40px" xmlns="http://www.w3.org/2000/svg" width="40" height="40" viewBox="0 0 40 40">
  <g id="Rectángulo_11" data-name="Rectángulo 11" transform="translate(0)" fill="rgba(255,255,255,0)" stroke="rgba(255,255,255,0)" stroke-width="1">
    <rect width="40" height="40" stroke="none"/>
    <rect x="0.5" y="0.5" width="39" height="39" fill="none"/>
  </g>
  <g id="Logo_involve" data-name="Logo involve" transform="translate(0.007 25.904)">
    <path id="Trazado_1" data-name="Trazado 1" d="M809.919,605.888a3.281,3.281,0,0,1-1.583,1.763,3.337,3.337,0,0,1-4.692-1.7,3.157,3.157,0,0,1,1.737-3.918,3.342,3.342,0,0,1,4.459,1.539,2.869,2.869,0,0,1,.2,1.88h-4.8a1.3,1.3,0,0,0,.406.644,1.664,1.664,0,0,0,2.323-.068.5.5,0,0,1,.308-.13C808.812,605.881,809.346,605.888,809.919,605.888Zm-4.649-1.6h3.058a1.582,1.582,0,0,0-1.5-1.074A1.648,1.648,0,0,0,805.27,604.286Z" transform="translate(-771.107 -601.796)" fill="#fff"/>
    <path id="Trazado_2" data-name="Trazado 2" d="M423.009,601.19a3.263,3.263,0,0,1,3.114,2.289,3.176,3.176,0,0,1-1.852,3.781,3.327,3.327,0,0,1-4.286-1.425,3.181,3.181,0,0,1,2.135-4.5C422.409,601.258,422.711,601.235,423.009,601.19Zm1.569,3.182a1.607,1.607,0,0,0-1.616-1.651,1.675,1.675,0,0,0-1.655,1.67,1.606,1.606,0,0,0,1.616,1.652A1.676,1.676,0,0,0,424.578,604.372Z" transform="translate(-403.615 -601.305)" fill="#fff"/>
    <path id="Trazado_3" data-name="Trazado 3" d="M117.9,607.742h-1.642c0-.19.008-.37.009-.549.007-.918.053-1.838.008-2.752a1.365,1.365,0,0,0-1.76-1.293,1.517,1.517,0,0,0-1.079,1.491c-.029.948-.038,1.9-.055,2.845,0,.081,0,.162,0,.257h-1.65c0-.055-.013-.113-.012-.17.016-.941.019-1.882.053-2.823a3.076,3.076,0,0,1,1.518-2.709,3.034,3.034,0,0,1,4.667,2.511c.039,1.021-.02,2.047-.036,3.071A1.16,1.16,0,0,1,117.9,607.742Z" transform="translate(-108.747 -601.687)" fill="#fff"/>
    <path id="Trazado_4" data-name="Trazado 4" d="M260,605.645c.569,0,1.117-.006,1.665.008.065,0,.152.1.184.178.469,1.1.93,2.2,1.393,3.3.032.075.066.15.115.26.048-.1.084-.167.117-.238.5-1.1,1.007-2.2,1.5-3.3a.3.3,0,0,1,.317-.213c.516.013,1.034,0,1.577,0-.043.1-.07.169-.1.235q-1.345,2.778-2.688,5.557a.28.28,0,0,1-.3.2c-.322-.016-.649,0-.97-.01a.268.268,0,0,1-.2-.116q-1.3-2.875-2.592-5.758A.562.562,0,0,1,260,605.645Z" transform="translate(-250.766 -605.56)" fill="#fff"/>
    <path id="Trazado_5" data-name="Trazado 5" d="M647.654,609.2c.045-.092.08-.157.11-.224.5-1.1,1.006-2.2,1.5-3.3a.307.307,0,0,1,.334-.224c.51.015,1.021.005,1.568.005-.041.094-.068.16-.1.224q-1.35,2.788-2.7,5.577a.262.262,0,0,1-.284.187c-.33-.014-.662,0-.993-.009a.24.24,0,0,1-.186-.105q-1.307-2.887-2.6-5.779c-.008-.018,0-.043,0-.094a12.22,12.22,0,0,0,1.233-.009.624.624,0,0,1,.743.489c.39,1.018.833,2.014,1.255,3.019C647.571,609.023,647.606,609.1,647.654,609.2Z" transform="translate(-618.711 -605.367)" fill="#fff"/>
    <path id="Trazado_6" data-name="Trazado 6" d="M590.635,567.959H589l.141-7.959h1.634Z" transform="translate(-565.708 -561.898)" fill="#fff"/>
    <path id="Trazado_7" data-name="Trazado 7" d="M48.278,612.063H46.65l.1-5.963h1.628Z" transform="translate(-46.495 -606.002)" fill="#fff"/>
    <path id="Trazado_8" data-name="Trazado 8" d="M43.835,766.9a.913.913,0,0,1-.932-.937.972.972,0,0,1,.971-.962.949.949,0,0,1,.928.956A.97.97,0,0,1,43.835,766.9Z" transform="translate(-42.91 -758.024)" fill="#fff"/>
    <ellipse id="Elipse_1" data-name="Elipse 1" cx="2.383" cy="2.342" rx="2.383" ry="2.342" transform="matrix(0.71, -0.704, 0.704, 0.71, 9.426, -17.549)" fill="#6ee3e3"/>
    <path id="Trazado_9" data-name="Trazado 9" d="M344.32,307.53Z" transform="translate(-331.459 -320.058)" fill="#6ee3e3"/>
    <path id="Trazado_10" data-name="Trazado 10" d="M111.729,140.245a25.576,25.576,0,0,1-4.916-5.743,4.068,4.068,0,0,0-2.527-2.021,7.307,7.307,0,0,0-3.714-.046,3.6,3.6,0,0,0-2.131,1.357c-.377.522-.29.294-1.177,1.522a9.92,9.92,0,0,1-3.178,3.354c-1.954,1.313-3.181,1.195-5.1,1.137h-.235c-2.959-.065-5.365-1.121-6.877-3.824a6.663,6.663,0,0,0-1.668-1.918,1.449,1.449,0,0,0-1.648-.278,1.632,1.632,0,0,0-.954,1.568,5.33,5.33,0,0,0,1.938,3.988,25.56,25.56,0,0,1,4.916,5.742,4.069,4.069,0,0,0,2.527,2.021,7.3,7.3,0,0,0,3.714.045,3.59,3.59,0,0,0,2.129-1.357c.378-.522.734-.948,1.177-1.522a13.647,13.647,0,0,1,3.178-3.354c1.562-1.124,3.181-1.195,5.1-1.137,0,0,.117,0,.235,0,2.959.065,5.366,1.121,6.877,3.824a6.675,6.675,0,0,0,1.668,1.918,1.45,1.45,0,0,0,1.648.278,1.632,1.632,0,0,0,.956-1.57A5.334,5.334,0,0,0,111.729,140.245Z" transform="translate(-76.105 -152.217)" fill="#6ee3e3"/>
    <path id="Trazado_11" data-name="Trazado 11" d="M657,306.93Z" transform="translate(-630.79 -319.483)" fill="#6ee3e3"/>
    <ellipse id="Elipse_2" data-name="Elipse 2" cx="2.383" cy="2.342" rx="2.383" ry="2.342" transform="matrix(0.71, -0.704, 0.704, 0.71, 22.587, -7.032)" fill="#6ee3e3"/>
    <path id="Trazado_12" data-name="Trazado 12" d="M960.328,606.734h-.2v.283h-.071v-.707h.282a.212.212,0,0,1,.06.415l.173.292h-.08Zm-.2-.067h.212a.145.145,0,0,0,0-.291h-.212Z" transform="translate(-920.924 -606.089)" fill="#fff"/>
    <path id="Trazado_13" data-name="Trazado 13" d="M960.41,606.806h-.1l-.166-.283h-.182v.283h-.091v-.727h.293a.222.222,0,0,1,.075.43Zm-.093-.02h.057l-.171-.288.013,0a.2.2,0,0,0-.057-.395h-.272v.686h.051V606.5h.213Zm-.157-.329h-.222v-.311h.222a.155.155,0,1,1,0,.311Zm-.2-.02h.2a.136.136,0,0,0,0-.271h-.2Z" transform="translate(-920.742 -605.869)" fill="#fff"/>
    <path id="Trazado_14" data-name="Trazado 14" d="M952.593,602.2a.6.6,0,1,1,.6-.6A.6.6,0,0,1,952.593,602.2Zm0-1.145a.542.542,0,1,0,.542.542A.542.542,0,0,0,952.593,601.051Z" transform="translate(-913.203 -601.002)" fill="#fff"/>
  </g>
</svg>
