<svg id="icon-check_fill" xmlns="http://www.w3.org/2000/svg" width="20" height="20" viewBox="0 0 20 20">
  <path id="Trazado_4099" data-name="Trazado 4099" d="M-112-54.25a10,10,0,0,0-10,10,10,10,0,0,0,10,10,10,10,0,0,0,10-10A10,10,0,0,0-112-54.25Zm5.736,7.06-6.941,6.941a.75.75,0,0,1-.53.22.751.751,0,0,1-.531-.22l-3.47-3.471a.749.749,0,0,1,0-1.06.749.749,0,0,1,1.06,0l2.941,2.94,6.411-6.411a.749.749,0,0,1,1.06,0A.75.75,0,0,1-106.264-47.19Z" transform="translate(122 54.25)" fill="#0bb9b9"/>
</svg>
